\relax 
\providecommand\zref@newlabel[2]{}
\providecommand\hyper@newdestlabel[2]{}
\providecommand\HyperFirstAtBeginDocument{\AtBeginDocument}
\HyperFirstAtBeginDocument{\ifx\hyper@anchor\@undefined
\global\let\oldcontentsline\contentsline
\gdef\contentsline#1#2#3#4{\oldcontentsline{#1}{#2}{#3}}
\global\let\oldnewlabel\newlabel
\gdef\newlabel#1#2{\newlabelxx{#1}#2}
\gdef\newlabelxx#1#2#3#4#5#6{\oldnewlabel{#1}{{#2}{#3}}}
\AtEndDocument{\ifx\hyper@anchor\@undefined
\let\contentsline\oldcontentsline
\let\newlabel\oldnewlabel
\fi}
\fi}
\global\let\hyper@last\relax 
\gdef\HyperFirstAtBeginDocument#1{#1}
\providecommand\HyField@AuxAddToFields[1]{}
\providecommand\HyField@AuxAddToCoFields[2]{}
\citation{abs_health}
\citation{heart}
\citation{abs_smoking}
\citation{abs_smoking}
\@writefile{toc}{\contentsline {section}{\numberline {1}Project Detail}{2}{section.1}}
\@writefile{toc}{\contentsline {section}{\numberline {2}Purpose of this document}{2}{section.2}}
\@writefile{toc}{\contentsline {section}{\numberline {3}Project Overview}{2}{section.3}}
\@writefile{toc}{\contentsline {section}{\numberline {4}Research and Background}{2}{section.4}}
\citation{website:matthews}
\citation{ian}
\@writefile{toc}{\contentsline {section}{\numberline {5}Concept}{3}{section.5}}
\@writefile{toc}{\contentsline {section}{\numberline {6}Task Allocation}{3}{section.6}}
\newlabel{sec:task}{{6}{3}{Task Allocation}{section.6}{}}
\@writefile{toc}{\contentsline {section}{\numberline {7}Design}{4}{section.7}}
\@writefile{toc}{\contentsline {subsection}{\numberline {7.1}Overview}{4}{subsection.7.1}}
\@writefile{toc}{\contentsline {subsection}{\numberline {7.2}Model}{4}{subsection.7.2}}
\@writefile{lof}{\contentsline {figure}{\numberline {1}{\ignorespaces Overview of the design\relax }}{5}{figure.caption.1}}
\providecommand*\caption@xref[2]{\@setref\relax\@undefined{#1}}
\newlabel{fig:overview}{{1}{5}{Overview of the design\relax }{figure.caption.1}{}}
\@writefile{toc}{\contentsline {subsection}{\numberline {7.3}Service}{5}{subsection.7.3}}
\@writefile{lof}{\contentsline {figure}{\numberline {2}{\ignorespaces UML diagram for Model layer\relax }}{6}{figure.caption.2}}
\newlabel{fig:model}{{2}{6}{UML diagram for Model layer\relax }{figure.caption.2}{}}
\@writefile{toc}{\contentsline {section}{\numberline {8}Components}{6}{section.8}}
\newlabel{sec:component}{{8}{6}{Components}{section.8}{}}
\@writefile{toc}{\contentsline {subsection}{\numberline {8.1}Progress component}{6}{subsection.8.1}}
\@writefile{toc}{\contentsline {subsubsection}{\numberline {8.1.1}Model}{6}{subsubsection.8.1.1}}
\@writefile{toc}{\contentsline {subsubsection}{\numberline {8.1.2}Service}{7}{subsubsection.8.1.2}}
\@writefile{toc}{\contentsline {section}{\numberline {9}Mockups}{7}{section.9}}
\@writefile{lof}{\contentsline {figure}{\numberline {3}{\ignorespaces Mockup for losing weight progress report\relax }}{9}{figure.caption.3}}
\newlabel{fig:mockup_1}{{3}{9}{Mockup for losing weight progress report\relax }{figure.caption.3}{}}
\@writefile{lof}{\contentsline {figure}{\numberline {4}{\ignorespaces Mockup for visualisation view\relax }}{10}{figure.caption.4}}
\newlabel{fig:mockup_2}{{4}{10}{Mockup for visualisation view\relax }{figure.caption.4}{}}
\bibstyle{abbrv}
\bibdata{citations}
\bibcite{abs_health}{1}
\bibcite{abs_smoking}{2}
\bibcite{ian}{3}
\bibcite{website:matthews}{4}
\bibcite{heart}{5}
\newlabel{LastPage}{{}{11}{}{page.11}{}}
\xdef\lastpage@lastpage{11}
\xdef\lastpage@lastpageHy{11}
