\begin{thebibliography}{1}

\bibitem{abs_health}
{Australian Bureau of Statistics}.
\newblock Australian health survey - updated results.
\newblock Technical report, Australian Bureau of Statistics, January 2011.

\bibitem{abs_smoking}
{Australian Bureau of Statistics}.
\newblock Gender indicators.
\newblock Technical report, Australian Bureau of Statistics, January 2013.

\bibitem{ian}
I.~Ayres.
\newblock {\em Carrots and Sticks: Unlock the Power of Incentives to Get Things
  Done}.
\newblock Bantam, September 2010.

\bibitem{website:matthews}
G.~Matthews.
\newblock Study focuses on strategies for achieving goals, resolutions.
\newblock
  \url{http://www.dominican.edu/dominicannews/study-highlights-strategies-for-achieving-goals},
  January 2015.

\bibitem{heart}
L.~A. Melanie~Nichols, Karen~Peterson and S.~Allender.
\newblock Australian heart disease statistics 2014.
\newblock Technical report, National Heart Foundation, 2014.

\end{thebibliography}
